[configuration]
configId=10
providerCode=41

[connection]
socketServer=0
channel=0
nodeAddress=0x13


[database]
configFromDatabase=0
host=
user=
password=
dbName=
saveConfigToIniFile=0

[debug]
CAN_debugStdout=0
CAN_maxChannels=10
CAN_monitorTimeout=
CAN_noTransmit=0
debugLVStructures=0
maxMonitorErrors=0
allowSISHeaters=0
SISOpenLoop=0

[logger]
logDir=D:\ALMA\test_data\FEctr_Logs\
logFile=fectr_log.txt
logFileReplace=0
logMySQL=0.
logTransactions=0


[~Configuration41-10]
Description=FE4 with Bands 3679 Opt (EU-FEIC FE3)
FrontEnd=41,10
CartAssembly=
TS=2009-09-07 12:25:15

[~FrontEnd41-10]
Carts=5
Cart01=3,3,3,15,3,24
Cart02=6,6,6,11,6,12
Cart03=7,7,7,21,7,12
Cart04=9,9,9,12,9,14
Cart05=1,3,0,0,1,3
Cryostat=10
LPR=210
IFSwitch=1
PowerDist=1
SN=10

[~Cryostat41-10]
SN=10
ESN=01 6A A9 A8 11 00 00 AS

[~LPR41-210]
SN=210
ESN=88 77 66 55 44 33 22 11


[~ColdCart3-15]
Band=3
Description=B3 CCA SN15 Opt for WCA3-24
ESN=
SN=40.02.03.07.15
MagnetParams=0

MixerParams=5
MixerParam01=92.000,10.460,10.470,10.480,10.910,36.32,38.27,47.12,49.07     
MixerParam02=96.000,10.368,10.400,10.445,10.863,34.18,34.97,47.42,45.96
MixerParam03=100.000,10.400,10.430,10.460,10.880,35.28,31.74,51.27,47.85
MixerParam04=104.000,10.380,10.400,10.440,10.830,37.11,35.03,53.22,45.23
MixerParam05=108.000,10.350,10.370,10.410,10.830,38.27,37.35,57.74,50.35

PreampParams=20
PreampParam01=92.000,0,1,0.9508,0.8012,0.8008,5.6717,5.1254,5.0995,-0.1341,-0.1797,-0.1344
PreampParam02=92.000,0,2,0.9009,0.8011,0.8009,5.1422,5.1468,5.0873,-0.1395,-0.1878,-0.1361
PreampParam03=92.000,1,1,1.0019,0.8018,0.8012,5.6946,5.1514,5.1163,-0.1712,-0.1122,-0.1048
PreampParam04=92.000,1,2,0.8017,0.8017,0.8011,5.6564,5.2032,5.1590,-0.1527,-0.1559,-0.1254
PreampParam05=96.000,0,1,0.9508,0.8012,0.8008,5.6610,5.1300,5.1224,-0.1329,-0.1784,-0.1338
PreampParam06=96.000,0,2,0.9012,0.8011,0.8008,5.1453,5.1193,5.1086,-0.1393,-0.1871,-0.1353
PreampParam07=96.000,1,1,1.0019,0.8017,0.8012,5.7022,5.1834,5.0949,-0.1700,-0.1109,-0.1039
PreampParam08=96.000,1,2,0.8015,0.8020,0.8012,5.6580,5.1758,5.1575,-0.1517,-0.1546,-0.1242
PreampParam09=100.000,0,1,0.9506,0.8009,0.8008,5.6671,5.1575,5.1025,-0.1314,-0.1772,-0.1328
PreampParam10=100.000,0,2,0.9012,0.8011,0.8011,5.1361,5.1102,5.0888,-0.1385,-0.1857,-0.1346
PreampParam11=100.000,1,1,1.0020,0.8017,0.8014,5.6732,5.1514,5.1224,-0.1691,-0.1096,-0.1025
PreampParam12=100.000,1,2,0.8017,0.8015,0.8014,5.6244,5.1697,5.1361,-0.1501,-0.1529,-0.1233
PreampParam13=104.000,0,1,0.9506,0.8011,0.8009,5.6686,5.1636,5.1224,-0.1344,-0.1801,-0.1346
PreampParam14=104.000,0,2,0.9009,0.8011,0.8009,5.1468,5.1193,5.1132,-0.1407,-0.1878,-0.1364
PreampParam15=104.000,1,1,1.0019,0.8017,0.8012,5.7053,5.1773,5.1209,-0.1712,-0.1117,-0.1054
PreampParam16=104.000,1,2,0.8018,0.8015,0.8015,5.6305,5.2017,5.1590,-0.1526,-0.1553,-0.1256
PreampParam17=108.000,0,1,0.9506,0.8009,0.8012,5.6946,5.1285,5.1346,-0.1300,-0.1753,-0.13
PreampParam18=108.000,0,2,0.9012,0.8012,0.8011,5.1453,5.1102,5.0873,-0.1363,-0.1833,-0.1321
PreampParam19=108.000,1,1,1.0019,0.8018,0.8014,5.6671,5.1849,5.0919,-0.1665,-0.1076,-0.1009
PreampParam20=108.000,1,2,0.8017,0.8015,0.8014,5.6259,5.1773,5.1605,-0.1483,-0.1514,-0.1208

[~WCA3-24]
Band=3
Description=B3 WCA SN24 for Opt for CCA3-15
SN=24
ESN=
FHIYIG=18.05
FLOYIG=15.27

LOParams=5
LOParam01=92.000,1.52,1.51,-0.1,-0.1
LOParam02=96.000,1.30,1.28,-0.1,-0.1
LOParam03=100.000,1.30,1.18,-0.1,-0.1
LOParam04=104.000,1.36,1.25,-0.1,-0.1
LOParam05=108.000,1.39,1.33,-0.1,-0.1

[~ColdCart6-11]
Band=6
Description=B6 CCA SN11
ESN=
SN=11

MagnetParams=12
MagnetParam01=221.000,25,25,25,25
MagnetParam02=225.000,25,25,25,25
MagnetParam03=229.000,25,25,25,25
MagnetParam04=233.000,25,25,25,25
MagnetParam05=237.000,25,25,25,25
MagnetParam06=241.000,25,25,25,25
MagnetParam07=245.000,25,25,25,25
MagnetParam08=249.000,25,25,25,25
MagnetParam09=253.000,25,25,25,25
MagnetParam10=257.000,25,25,25,25
MagnetParam11=261.000,25,25,25,25
MagnetParam12=265.000,25,25,25,25

MixerParams=12
MixerParam01=221.000,-9,9,-8.5,8.5,-30,30,-36,36
MixerParam02=225.000,-9,9,-8.5,8.5,-40,40,-44,44
MixerParam03=229.000,-9,9,-8.5,8.5,-45,45,-52,52
MixerParam04=233.000,-9,9,-8.5,8.5,-40,40,-45,45
MixerParam05=237.000,-9,9,-8.5,8.5,-50,50,-50,50
MixerParam06=241.000,-9,9,-8.5,8.5,-45,45,-50,50
MixerParam07=245.000,-9,9,-8.5,8.5,-45,45,-50,50
MixerParam08=249.000,-9,9,-9.0,9.0,-40,40,-55,55
MixerParam09=253.000,-9,9,-8.0,8.0,-40,40,-40,40
MixerParam10=257.000,-9,9,-8.0,8.0,-45,45,-50,50
MixerParam11=261.000,-8,8,-8.0,8.0,-40,40,-45,45
MixerParam12=265.000,-8,8,-8.0,8.0,-50,50,-50,50

PreampParams=4
PreampParam01=221.000,0,1,0.7,0.7,0.7,4,4,3,-0.15,-0.15,-0.15
PreampParam02=221.000,0,2,0.7,0.7,0.7,4,4,3,-0.15,-0.15,-0.15
PreampParam03=221.000,1,1,0.7,0.7,0.7,4,4,3,-0.15,-0.15,-0.15
PreampParam04=221.000,1,2,0.7,0.7,0.7,4,4,3,-0.15,-0.15,-0.15

[~WCA6-12]
Band=6
Description=B6 WCA SN12 Opt for CCA6-11
SN=12
ESN=
FLOYIG=12.23
FHIYIG=14.771

LOParams=12
LOParam01=221.000,1.73,1.50,0.15,0.15
LOParam02=225.000,1.61,1.39,0.15,0.15
LOParam03=229.000,1.39,1.59,0.15,0.15
LOParam04=233.000,1.41,1.25,0.15,0.15
LOParam05=237.000,1.70,1.32,0.15,0.15
LOParam06=241.000,1.33,1.36,0.15,0.15
LOParam07=245.000,1.56,1.44,0.15,0.15
LOParam08=249.000,1.05,1.22,0.15,0.15
LOParam09=253.000,1.35,1.31,0.15,0.15
LOParam10=257.000,1.56,1.43,0.15,0.15
LOParam11=261.000,1.43,1.17,0.15,0.15
LOParam12=265.000,1.62,1.63,0.15,0.15




[~ColdCart7-21]
Band=7
Description=B7 CCA SN21
SN=21
ESN=

MagnetParams=20
MagnetParam01=283.000,37.5,33.6,32,35.8
MagnetParam02=287.000,37.5,33.6,32,35.8
MagnetParam03=291.000,37.5,33.6,32,35.8
MagnetParam04=295.000,37.5,33.6,32,35.8
MagnetParam05=299.000,37.5,33.6,32,35.8
MagnetParam06=303.000,37.5,33.6,32,35.8
MagnetParam07=307.000,37.5,33.6,32,35.8
MagnetParam08=311.000,37.5,33.6,32,35.8
MagnetParam09=315.000,37.5,33.6,32,35.8
MagnetParam10=319.000,37.5,33.6,32,35.8
MagnetParam11=323.000,37.5,33.6,32,35.8
MagnetParam12=327.000,37.5,33.6,32,35.8
MagnetParam13=331.000,37.5,33.6,32,35.8
MagnetParam14=335.000,37.5,33.6,32,35.8
MagnetParam15=339.000,37.5,33.6,32,35.8
MagnetParam16=343.000,37.5,33.6,32,35.8
MagnetParam17=347.000,37.5,33.6,32,35.8
MagnetParam18=351.000,37.5,33.6,32,35.8
MagnetParam19=355.000,37.5,33.6,32,35.8
MagnetParam20=359.000,37.5,33.6,32,35.8
MagnetParam21=363.000,37.5,33.6,32,35.8
MagnetParam20=365.000,37.5,33.6,32,35.8

MixerParams=22
MixerParam01=283.000,2.3,2.3,2.3,2.3,33.4,28.4,25.9,32.3
MixerParam02=287.000,2.3,2.3,2.3,2.3,32.7,29.6,27.8,36.4
MixerParam03=291.000,2.3,2.3,2.3,2.3,33.9,26.3,26.3,32.7
MixerParam04=295.000,2.3,2.3,2.3,2.3,31.1,27.7,22.9,35.3
MixerParam05=299.000,2.3,2.3,2.3,2.3,32.6,25.2,25.3,32.8
MixerParam06=303.000,2.3,2.3,2.3,2.3,32.2,29.3,29.5,30.9
MixerParam07=307.000,2.3,2.3,2.3,2.3,38.2,27.7,25,33.7
MixerParam08=311.000,2.3,2.3,2.3,2.3,33.3,28.9,25.9,33.4
MixerParam09=315.000,2.3,2.3,2.3,2.3,32.1,26.2,27.5,37.6
MixerParam10=319.000,2.3,2.3,2.3,2.3,36.2,28.6,28.1,35.3
MixerParam11=323.000,2.3,2.3,2.3,2.3,35.9,27.8,25.2,33.8
MixerParam12=327.000,2.3,2.3,2.3,2.3,33.9,24.9,25.5,32.4
MixerParam13=331.000,2.3,2.3,2.3,2.3,33.8,25.4,26.9,34.3
MixerParam14=335.000,2.3,2.3,2.3,2.3,32.3,29.8,26.4,35.7
MixerParam15=339.000,2.3,2.3,2.3,2.3,35.8,26.5,26.2,33.7
MixerParam16=343.000,2.33,2.33,2.33,2.33,36.1,26.4,25.4,34
MixerParam17=347.000,2.35,2.35,2.35,2.35,34,25.7,26,33.2
MixerParam18=351.000,2.38,2.38,2.38,2.38,33.4,25,25,34
MixerParam19=355.000,2,2,2,2,33.6,27.8,25.3,32.8
MixerParam20=359.000,2.03,2.03,2.03,2.03,32.3,29,28,33.9
MixerParam21=363.000,2.05,2.05,2.05,2.05,29,32.1,26.7,34.9
MixerParam22=365.000,2.06,2.06,2.06,2.06,29.9,30.4,24.8,34.2

PreampParams=4
PreampParam01=283.000,0,1,0.6,0.5,0.8,4,4,4,-0.72,-1.04,-1.38
PreampParam02=283.000,0,2,0.6,0.5,0.8,4,4,4,-0.93,-0.9,-1.5
PreampParam03=283.000,1,1,0.6,0.5,0.8,4,4,4,-0.6,-1,-1.44
PreampParam04=283.000,1,2,0.6,0.5,0.8,4,4,4,-1.02,-1.01,-1.5

[~WCA7-12]
Band=7
Description=B7 WCA SN12 Opt for CCA7-21
SN=12
ESN=
FHIYIG=20.37
FLOYIG=15.63                         

LOParams=22
LOParam01=283.000,0.92,1.03,-0.1,-0.1
LOParam02=287.000,1.08,0.98,-0.1,-0.1
LOParam03=291.000,1.03,0.90,-0.1,-0.1
LOParam04=295.000,0.90,1.01,-0.1,-0.1
LOParam05=299.000,1.03,0.74,-0.1,-0.1
LOParam06=303.000,0.88,1.01,-0.1,-0.1
LOParam07=307.000,1.17,0.92,-0.1,-0.1
LOParam08=311.000,1.29,0.76,-0.1,-0.1
LOParam09=315.000,0.83,0.85,-0.1,-0.1
LOParam10=319.000,0.94,0.88,-0.1,-0.1
LOParam11=323.000,1.30,1.11,-0.1,-0.1
LOParam12=327.000,1.36,1.32,-0.1,-0.1
LOParam13=331.000,0.97,1.15,-0.1,-0.1
LOParam14=335.000,0.94,1.15,-0.1,-0.1
LOParam15=339.000,0.96,1.31,-0.1,-0.1
LOParam16=343.000,1.18,1.50,-0.1,-0.1
LOParam17=347.000,1.25,1.14,-0.1,-0.1
LOParam18=351.000,1.01,1.07,-0.1,-0.1
LOParam19=355.000,0.92,1.26,-0.1,-0.1
LOParam20=359.000,1.12,1.51,-0.1,-0.1
LOParam21=363.000,0.93,1.23,-0.1,-0.1
LOParam22=365.000,1.38,1.23,-0.1,-0.1

[~ColdCart9-12]
Band=9
Description=B9 CCA SN12
SN=12
ESN=

MagnetParams=13
MagnetParam01=614.000,12.3,0,12.3,0
MagnetParam02=622.000,12.3,0,12.3,0
MagnetParam03=630.000,12.3,0,12.3,0
MagnetParam04=638.000,12.3,0,12.3,0
MagnetParam05=646.000,12.3,0,12.3,0
MagnetParam06=654.000,12.3,0,12.3,0
MagnetParam07=662.000,12.3,0,12.3,0
MagnetParam08=670.000,12.3,0,12.3,0
MagnetParam09=678.000,12.3,0,12.3,0
MagnetParam10=686.000,12.3,0,12.3,0
MagnetParam11=694.000,12.3,0,12.3,0
MagnetParam12=702.000,12.3,0,12.3,0
MagnetParam13=710.000,12.3,0,12.3,0

MixerParams=13
MixerParam01=614.00,2.024,0,1.975,0,25.344,0,23.544,0
MixerParam02=622.00,2.070,0,2.056,0,26.435,0,23.581,0
MixerParam03=630.00,2.087,0,1.965,0,26.940,0,22.401,0
MixerParam04=638.00,2.060,0,1.942,0,26.812,0,22.429,0
MixerParam05=646.00,2.040,0,1.949,0,25.827,0,23.691,0
MixerParam06=654.00,2.000,0,1.880,0,25.910,0,22.660,0
MixerParam07=662.00,1.974,0,1.893,0,26.247,0,23.291,0
MixerParam08=670.00,1.961,0,1.893,0,25.272,0,23.317,0
MixerParam09=678.00,1.948,0,1.880,0,26.865,0,22.760,0
MixerParam10=686.00,1.961,0,1.898,0,26.128,0,23.101,0
MixerParam11=694.00,1.936,0,1.915,0,26.223,0,22.916,0
MixerParam12=702.00,1.968,0,1.880,0,25.976,0,23.869,0
MixerParam13=710.00,2.014,0,1.880,0,25.835,0,23.403,0

PreampParams=2
PreampParam01=691.19189,0,1,1,0.5,0.7,4.06,3.07,3.06,-1.86,-1.64,-1.53
PreampParam02=691.19189,1,1,1,0.5,0.5,4.08,3.08,3.08,-1.81,-1.00,-1.17

[~WCA9-14]
Band=9
Description=B9 WCA SN14 Opt for CCA9-12
SN=12
ESN=
FHIYIG=26.44
FLOYIG=22.51

LOParams=13
LOParam01=614.00,0.90,0.90,-0.29604,-0.28991
LOParam02=622.00,0.88,0.71,-0.29604,-0.28991
LOParam03=630.00,0.88,0.84,-0.29604,-0.28991
LOParam04=638.00,0.84,0.93,-0.29604,-0.28991
LOParam05=646.00,0.80,0.90,-0.29604,-0.28991
LOParam06=654.00,0.70,0.76,-0.29604,-0.28991
LOParam07=662.00,0.75,0.76,-0.29604,-0.28991
LOParam08=670.00,0.75,0.75,-0.29604,-0.28991
LOParam09=678.00,0.90,0.82,-0.29604,-0.28991
LOParam10=686.00,0.93,1.02,-0.29604,-0.28991
LOParam11=694.00,1.04,0.86,-0.29604,-0.28991
LOParam12=702.00,1.31,0.87,-0.29604,-0.28991
LOParam13=710.00,1.05,0.80,-0.29604,-0.28991

[~WCA1-3]
Band=3
Description= Band 3 signal source
ESN=
FHIYIG=19.536
FLOYIG=13.858
LOParams=1
LOParam01=100.000,2.5,2.5,-0.1,-0.1
SN=BEAST

